…
    ## `summarise()` has grouped output by 'city_state'. You can override using the `.groups` argument.
    ## `summarise()` has grouped output by 'city_state'. You can override using the `.groups` argument.

``` r
homicide_unsolved
```

    ## # A tibble: 50 × 3
    ## # Groups:   city_state [50]
    ##    city_state      homicide_num unsolved_num
    ##    <chr>                  <int>        <int>
    ##  1 Albuquerque, NM          378          146
    ##  2 Atlanta, GA              973          373
    ##  3 Baltimore, MD           2827         1825
    ##  4 Baton Rouge, LA          424          196
    ##  5 Birmingham, AL           800          347
    ##  6 Boston, MA               614          310
    ##  7 Buffalo, NY              521          319
    ##  8 Charlotte, NC            687          206
    ##  9 Chicago, IL             5535         4073
    ## 10 Cincinnati, OH           694          309
    ## # … with 40 more rows
…
``` r
#calculate interval for all cities
city_prop_data <- homicide_unsolved %>%
  mutate(
    prop_test = map2(unsolved_num, homicide_num, prop.test),
    prop_test = map(prop_test, tidy)
  ) %>%
  unnest(cols = prop_test) %>%
  select(city_state,estimate,conf.low,conf.high)

city_prop_data
```

    ## # A tibble: 50 × 4
    ## # Groups:   city_state [50]
    ##    city_state      estimate conf.low conf.high
    ##    <chr>              <dbl>    <dbl>     <dbl>
    ##  1 Albuquerque, NM    0.386    0.337     0.438
    ##  2 Atlanta, GA        0.383    0.353     0.415
    ##  3 Baltimore, MD      0.646    0.628     0.663
    ##  4 Baton Rouge, LA    0.462    0.414     0.511
    ##  5 Birmingham, AL     0.434    0.399     0.469
    ##  6 Boston, MA         0.505    0.465     0.545
    ##  7 Buffalo, NY        0.612    0.569     0.654
    ##  8 Charlotte, NC      0.300    0.266     0.336
    ##  9 Chicago, IL        0.736    0.724     0.747
    ## 10 Cincinnati, OH     0.445    0.408     0.483
    ## # … with 40 more rows
…
